<?xml version="1.0" encoding="UTF-8" standalone="no"?>
<!DOCTYPE svg PUBLIC "-//W3C//DTD SVG 1.1//EN" "http://www.w3.org/Graphics/SVG/1.1/DTD/svg11.dtd">
<svg width="100%" height="100%" viewBox="0 0 47 47" version="1.1" xmlns="http://www.w3.org/2000/svg" xmlns:xlink="http://www.w3.org/1999/xlink" xml:space="preserve" xmlns:serif="http://www.serif.com/" style="fill-rule:evenodd;clip-rule:evenodd;stroke-linejoin:round;stroke-miterlimit:2;">
    <g transform="matrix(1,0,0,1,-150.65,-321.14)">
        <g transform="matrix(1,0,0,1,190.121,336.725)">
            <path d="M-1.565,-15.585L-30.417,-15.585C-35.417,-15.585 -39.471,-11.531 -39.471,-6.531L-39.471,22.321C-39.471,27.321 -35.417,31.374 -30.417,31.374L-1.565,31.374C3.435,31.374 7.488,27.321 7.488,22.321L7.488,-6.531C7.488,-11.531 3.435,-15.585 -1.565,-15.585" style="fill:white;fill-rule:nonzero;"/>
        </g>
        <g transform="matrix(1,0,0,1,177.994,329.16)">
            <path d="M0,30.92C1.605,29.373 2.943,27.454 3.948,25.283L8.674,25.283C6.52,28.027 3.485,30.049 0,30.92M-11.677,25.283C-10.671,27.454 -9.334,29.373 -7.728,30.92C-11.213,30.049 -14.248,28.027 -16.403,25.283L-11.677,25.283ZM-7.728,0.001C-9.334,1.547 -10.671,3.466 -11.677,5.638L-16.403,5.638C-14.248,2.894 -11.213,0.872 -7.728,0.001M3.948,5.638C2.943,3.466 1.605,1.547 0,0.001C3.485,0.872 6.52,2.894 8.674,5.638L3.948,5.638ZM12.034,14.402L6.029,14.402C5.929,12.072 5.503,9.826 4.795,7.753L10.078,7.753C11.185,9.748 11.876,12.003 12.034,14.402M2.553,7.753C3.331,9.793 3.802,12.047 3.912,14.402L-11.64,14.402C-11.531,12.047 -11.059,9.793 -10.281,7.753L2.553,7.753ZM-3.864,-0.317C-1.613,1.022 0.254,3.099 1.597,5.638L-9.325,5.638C-7.982,3.099 -6.115,1.022 -3.864,-0.317M-17.806,7.753L-12.523,7.753C-13.231,9.826 -13.658,12.072 -13.757,14.402L-19.763,14.402C-19.604,12.003 -18.914,9.748 -17.806,7.753M-19.763,16.518L-13.757,16.518C-13.658,18.849 -13.231,21.094 -12.523,23.168L-17.806,23.168C-18.914,21.173 -19.604,18.917 -19.763,16.518M-10.281,23.168C-11.059,21.127 -11.531,18.874 -11.64,16.518L3.912,16.518C3.802,18.874 3.331,21.127 2.553,23.168L-10.281,23.168ZM-3.864,31.238C-6.115,29.899 -7.982,27.822 -9.325,25.283L1.597,25.283C0.254,27.822 -1.613,29.899 -3.864,31.238M10.078,23.168L4.795,23.168C5.503,21.094 5.929,18.849 6.029,16.518L12.034,16.518C11.876,18.917 11.185,21.173 10.078,23.168M8.899,2.697C5.49,-0.712 0.958,-2.59 -3.864,-2.59C-8.686,-2.59 -13.218,-0.712 -16.627,2.697C-20.036,6.107 -21.914,10.639 -21.914,15.46C-21.914,20.281 -20.036,24.815 -16.627,28.224C-13.218,31.633 -8.685,33.51 -3.864,33.51C0.957,33.51 5.49,31.633 8.899,28.224C12.308,24.815 14.186,20.281 14.186,15.46C14.186,10.639 12.308,6.107 8.899,2.697" style="fill:rgb(55,60,130);fill-rule:nonzero;"/>
        </g>
    </g>
</svg>
